<svg width="40" height="40" viewBox="0 0 40 40" fill="none" xmlns="http://www.w3.org/2000/svg">
<circle cx="20" cy="20" r="20" fill="#364D81"/>
<g clip-path="url(#clip0)">
<path d="M17.8805 15.0987C17.8805 15.5019 17.8805 17.3016 17.8805 17.3016H16.2666V19.9952H17.8805V27.9999H21.1958V19.9955H23.4205C23.4205 19.9955 23.6289 18.7039 23.7299 17.2916C23.4403 17.2916 21.2083 17.2916 21.2083 17.2916C21.2083 17.2916 21.2083 15.7245 21.2083 15.4498C21.2083 15.1746 21.5698 14.8043 21.9271 14.8043C22.2837 14.8043 23.0363 14.8043 23.7334 14.8043C23.7334 14.4375 23.7334 13.1703 23.7334 12C22.8028 12 21.7441 12 21.2774 12C17.7986 11.9998 17.8805 14.6962 17.8805 15.0987Z" fill="white"/>
</g>
<defs>
<clipPath id="clip0">
<rect width="16" height="16" fill="white" transform="translate(12 12)"/>
</clipPath>
</defs>
</svg>
